7 Regresión logística – Introducción al Machine Learning aplicado a las Ciencias Sociales
…
Sensitivity (Sensibilidad o Recall): Indica la capacidad del modelo para detectar correctamente los casos positivos reales. Es prioritaria cuando es más costoso no detectar un positivo (por ejemplo, en detección de fraude o enfermedad).

Specificity (Especificidad) Mide la capacidad del modelo para identificar correctamente los negativos reales. Es especialmente importante cuando un falso positivo genera consecuencias indeseadas o costosas. Por ejemplo, en un sistema de detección de lavado de activos, una baja especificidad haría que muchas operaciones legítimas sean marcadas como sospechosas, generando sobrecarga en los analistas y pérdida de confianza en el sistema.

Paso 6: Fiteamos y evaluamos con last_fit()

Entrenamos el modelo final usando todos los datos de entrenamiento y lo evaluamos en el conjunto de prueba.

modelo_logistico_final <- lr_wf |> last_fit(split, metrics = mis_metricas)

Una vez entrenado el modelo final podemos recolectar las predicciones que ha realizado (sobre nuestra data de test, es decir, la data nueva):

collect_predictions(modelo_logistico_final)

# A tibble: 908 × 7
   .pred_class .pred_Dropout .pred_Graduate id              target  .row .config
   <fct>               <dbl>          <dbl> <chr>           <fct>  <int> <chr>  
 1 Dropout             0.804          0.196 train/test spl… Gradu…     6 pre0_m…
 2 Graduate            0.372          0.628 train/test spl… Dropo…     8 pre0_m…
 3 Graduate            0.310          0.690 train/test spl… Dropo…    10 pre0_m…
 4 Graduate            0.356          0.644 train/test spl… Gradu…    14 pre0_m…
 5 Graduate            0.310          0.690 train/test spl… Gradu…    15 pre0_m…
 6 Graduate            0.310          0.690 train/test spl… Gradu…    17 pre0_m…
 7 Graduate            0.325          0.675 train/test spl… Gradu…    22 pre0_m…
 8 Graduate            0.325          0.675 train/test spl… Gradu…    26 pre0_m…
 9 Dropout             0.716          0.284 train/test spl… Dropo…    29 pre0_m…
10 Graduate            0.356          0.644 train/test spl… Gradu…    40 pre0_m…
# ℹ 898 more rows
…
